{
  "name": "daemonpuppet-sysrc",
  "version": "0.1.0",
  "author": "Daemon Puppet",
  "summary": "",
  "license": "BSD-2-Clause",
  "source": "",
  "dependencies": [
    {
      "name": "puppetlabs/resource_api",
      "version_requirement": ">= 1.1.0 < 2.0.0"
    }
  ],
  "operatingsystem_support": [
    {
      "operatingsystem": "FreeBSD",
      "operatingsystemrelease": [
        "11",
        "12"
      ]
    }
  ],
  "requirements": [
    {
      "name": "puppet",
      "version_requirement": ">= 4.10.0 < 7.0.0"
    }
  ],
  "pdk-version": "1.18.1",
  "template-url": "pdk-default#1.18.1",
  "template-ref": "tags/1.18.1-0-g3d2e75c"
}
